{
  "_id": "12578760000160_ADMIN_LOJISTA",
  "isoldseller": false,
  "cnpj": "12578760000160",
  "cnpjmatriz": "07019308000128",
  "password": "$2a$10$FbzwF5ViMa/nJjFbVoxpI.xiLpqshGJ2CJC7HOeVTl3mJ/focOYDq",
  "razaosocial": "Britânia Eletrônicos S.A",
  "razaosocialmatriz": "Britânia Eletrônicos S.A",
  "nomefantasia": "Britânia Eletrônicos",
  "SUC": "E-com",
  "andar": "",
  "categoria": "tecnologia_informatica_e_eletronicos",
  "nomeresponsavel": "Marcelo Tinoco",
  "telefoneresponsavel": "4132187359",
  "emailresponsavel": "marcelo.tinoco@britania.com.br",
  "datarecebimento": "Mensal",
  "antecipacao": true,
  "taxaonstore": "10.30",
  "bankinfo": {
    "banco": "Banco do Brasil S.A.",
    "agencia": "3306",
    "contaCorrente": "5307",
    "contaDV": "4",
    "comprovanteBancario": "Comprovante Bancario - Britania.pdf"
  },
  "roletype": "ADMIN_LOJISTA",
  "shoppingid": "shoppingcidadesp",
  "idvtex": "philco",
  "isnew": false,
  "termwasaccepted": true,
  "lastLoginAt": "2020-11-25 11:43:28.364",
  "currentLoginAt": "2020-11-30 19:50:02.661",
  "enabled": true,
  "_class": "br.com.enext.model.Seller"
}
